%!PS-Adobe-3.0 EPSF-3.0
%%BoundingBox: 135 495 297 625
%%Creator: roma with JaxoDraw-2.1-0
%%Title: 
%%CreationDate: 13/11/2017
%%BeginProlog
/imStr 0 def /imageSrc {currentfile /ASCII85Decode filter /RunLengthDecode filter  imStr readstring pop } def
/BD {bind def} bind def
/D {def} BD
/C {curveto} BD
/L {lineto} BD
/M {moveto} BD
/R {grestore} BD
/G {gsave} BD
/N {newpath} BD
/P {closepath} BD
/EC {eoclip} BD
/WC {clip} BD
/EF {eofill} BD
/WF {fill} BD
/SG {setgray} BD
/SC {setrgbcolor} BD
/ISOF {
     dup findfont dup length 1 add dict begin {
             1 index /FID eq {pop pop} {D} ifelse
     } forall /Encoding ISOLatin1Encoding D
     currentdict end definefont
} BD
/NZ {dup 1 lt {pop 1} if} BD
/S {
     moveto 1 index stringwidth pop NZ sub
     1 index length 1 sub NZ div 0
     3 2 roll ashow newpath} BD
/FL [
    /AvantGarde-Book ISOF
    /AvantGarde-BookOblique ISOF
    /AvantGarde-Demi ISOF
    /AvantGarde-DemiOblique ISOF
    /Bookman-Demi ISOF
    /Bookman-DemiItalic ISOF
    /Bookman-Light ISOF
    /Bookman-LightItalic ISOF
    /Courier ISOF
    /Courier-Bold ISOF
    /Courier-BoldOblique ISOF
    /Courier-Oblique ISOF
    /Helvetica ISOF
    /Helvetica-Bold ISOF
    /Helvetica-BoldOblique ISOF
    /Helvetica-Narrow ISOF
    /Helvetica-Narrow-Bold ISOF
    /Helvetica-Narrow-BoldOblique ISOF
    /Helvetica-Narrow-Oblique ISOF
    /Helvetica-Oblique ISOF
    /NewCenturySchlbk-Bold ISOF
    /NewCenturySchlbk-BoldItalic ISOF
    /NewCenturySchlbk-Italic ISOF
    /NewCenturySchlbk-Roman ISOF
    /Palatino-Bold ISOF
    /Palatino-BoldItalic ISOF
    /Palatino-Italic ISOF
    /Palatino-Roman ISOF
    /Symbol findfont
    /Times-Bold ISOF
    /Times-BoldItalic ISOF
    /Times-Italic ISOF
    /Times-Roman ISOF
    /ZapfDingbats findfont
    /ZapfChancery-MediumItalic ISOF
] D
/F {
     FL exch get exch scalefont
     [1 0 0 -1 0 0] makefont setfont} BD
%%EndProlog
%%BeginSetup
<< /PageSize [612.0 792.0] /DeferredMediaSelection true /ImagingBBox null /ManualFeed false /NumCopies 1 >> pop 
%%EndSetup
%%Page: 1 1
/pgSave save def
792.0 0 exch translate 1 -1 scale[72 300 div 0 0 72 300 div 0 0]concat
G
[4.1666665 0.0 0.0 4.1666665 300.0 300.0] concat
N
0.0 0.0 M
468.0 0.0 L
468.0 648.0 L
0.0 648.0 L
0.0 0.0 L
P
WC
N
207.5 160.0 M
207.5 195.07 179.07 223.5 144.0 223.5 C
108.93 223.5 80.5 195.07 80.5 160.0 C
80.5 124.93 108.93 96.5 144.0 96.5 C
179.07 96.5 207.5 124.93 207.5 160.0 C
P
208.5 160.0 M
208.5 124.378 179.622 95.5 144.0 95.5 C
108.378 95.5 79.5 124.378 79.5 160.0 C
79.5 195.622 108.378 224.5 144.0 224.5 C
179.622 224.5 208.5 195.622 208.5 160.0 C
P
G
WC
WF
R N
N
93.834 175.471 M
96.494 177.532 99.274 179.422 102.156 181.131 C
102.393 181.272 102.7 181.193 102.841 180.956 C
102.982 180.718 102.904 180.412 102.666 180.271 C
99.82 178.583 97.074 176.716 94.447 174.681 C
94.228 174.511 93.914 174.551 93.745 174.769 C
93.576 174.988 93.615 175.302 93.834 175.471 C
P
111.09 185.709 M
114.159 187.049 117.311 188.2 120.53 189.154 C
120.795 189.232 121.073 189.082 121.152 188.817 C
121.23 188.552 121.079 188.274 120.814 188.195 C
117.635 187.253 114.52 186.116 111.49 184.792 C
111.237 184.682 110.942 184.798 110.832 185.051 C
110.722 185.304 110.837 185.599 111.09 185.709 C
P
130.311 191.405 M
133.603 191.952 136.942 192.297 140.312 192.434 C
140.588 192.445 140.821 192.231 140.833 191.955 C
140.844 191.679 140.63 191.446 140.354 191.435 C
137.025 191.3 133.725 190.958 130.474 190.419 C
130.201 190.374 129.944 190.558 129.899 190.83 C
129.854 191.103 130.038 191.36 130.311 191.405 C
P
150.442 192.214 M
153.794 191.932 157.108 191.443 160.368 190.756 C
160.638 190.699 160.811 190.434 160.753 190.164 C
160.696 189.893 160.431 189.721 160.161 189.778 C
156.942 190.456 153.668 190.939 150.358 191.218 C
150.082 191.241 149.878 191.483 149.902 191.758 C
149.925 192.033 150.167 192.237 150.442 192.214 C
P
170.055 188.08 M
173.227 186.989 176.325 185.703 179.333 184.232 C
179.581 184.11 179.683 183.811 179.562 183.563 C
179.44 183.315 179.141 183.212 178.893 183.334 C
175.923 184.787 172.863 186.056 169.73 187.135 C
169.469 187.224 169.33 187.509 169.42 187.77 C
169.51 188.031 169.794 188.17 170.055 188.08 C
P
188.063 179.27 M
190.637 177.588 193.119 175.759 195.497 173.787 C
195.71 173.61 195.921 173.434 196.132 173.255 C
196.342 173.077 196.369 172.761 196.19 172.55 C
196.012 172.34 195.696 172.313 195.485 172.492 C
195.278 172.668 195.068 172.843 194.859 173.017 C
192.511 174.964 190.058 176.772 187.516 178.433 C
187.285 178.584 187.22 178.893 187.371 179.125 C
187.522 179.356 187.831 179.421 188.063 179.27 C
P
203.36 166.326 M
205.127 164.41 206.808 162.401 208.398 160.302 C
208.565 160.082 208.522 159.769 208.302 159.602 C
208.082 159.435 207.769 159.478 207.602 159.698 C
206.032 161.77 204.369 163.756 202.625 165.648 C
202.438 165.851 202.451 166.167 202.653 166.354 C
202.856 166.542 203.173 166.529 203.36 166.326 C
P
79.606 161.308 M
81.696 163.979 83.937 166.5 86.311 168.861 C
86.507 169.056 86.824 169.055 87.018 168.859 C
87.213 168.663 87.212 168.347 87.016 168.152 C
84.671 165.82 82.458 163.33 80.394 160.692 C
80.223 160.474 79.909 160.436 79.692 160.606 C
79.474 160.777 79.436 161.091 79.606 161.308 C
P
G
WC
WF
R N
N
194.447 145.267 M
191.824 143.158 189.077 141.22 186.224 139.462 C
185.989 139.317 185.681 139.391 185.536 139.626 C
185.391 139.861 185.464 140.169 185.7 140.314 C
188.517 142.049 191.23 143.963 193.821 146.046 C
194.036 146.219 194.351 146.185 194.524 145.97 C
194.697 145.754 194.662 145.44 194.447 145.267 C
P
177.364 134.74 M
174.317 133.352 171.183 132.154 167.978 131.153 C
167.714 131.071 167.434 131.218 167.351 131.482 C
167.269 131.745 167.416 132.026 167.68 132.108 C
170.845 133.096 173.942 134.28 176.951 135.65 C
177.202 135.764 177.498 135.653 177.613 135.402 C
177.727 135.15 177.616 134.854 177.364 134.74 C
P
158.228 128.766 M
154.945 128.177 151.61 127.789 148.241 127.612 C
147.966 127.597 147.731 127.809 147.716 128.085 C
147.702 128.361 147.914 128.596 148.189 128.61 C
151.516 128.786 154.808 129.168 158.051 129.751 C
158.323 129.8 158.583 129.619 158.632 129.347 C
158.681 129.075 158.5 128.815 158.228 128.766 C
P
138.107 127.716 M
134.75 127.962 131.43 128.417 128.164 129.072 C
127.893 129.126 127.717 129.39 127.772 129.661 C
127.826 129.931 128.089 130.107 128.36 130.053 C
131.586 129.405 134.865 128.956 138.18 128.713 C
138.456 128.693 138.663 128.453 138.642 128.177 C
138.622 127.902 138.382 127.695 138.107 127.716 C
P
118.454 131.661 M
115.272 132.725 112.164 133.987 109.146 135.437 C
108.897 135.556 108.792 135.855 108.912 136.104 C
109.032 136.353 109.33 136.458 109.579 136.338 C
112.559 134.906 115.629 133.66 118.772 132.609 C
119.034 132.521 119.175 132.237 119.087 131.976 C
118.999 131.714 118.716 131.573 118.454 131.661 C
P
100.384 140.34 M
97.652 142.101 95.024 144.028 92.513 146.117 C
92.435 146.182 92.356 146.248 92.278 146.314 C
92.066 146.491 92.038 146.807 92.216 147.018 C
92.393 147.23 92.709 147.257 92.92 147.08 C
92.998 147.015 93.075 146.951 93.152 146.886 C
95.631 144.824 98.228 142.919 100.925 141.181 C
101.157 141.031 101.224 140.722 101.075 140.489 C
100.925 140.257 100.616 140.19 100.384 140.34 C
P
85.023 153.209 M
83.113 155.266 81.303 157.43 79.6 159.7 C
79.434 159.921 79.479 160.235 79.7 160.4 C
79.921 160.566 80.235 160.521 80.4 160.3 C
82.081 158.059 83.87 155.919 85.756 153.89 C
85.944 153.687 85.932 153.371 85.73 153.183 C
85.527 152.995 85.211 153.007 85.023 153.209 C
P
208.4 159.7 M
206.365 156.986 204.174 154.421 201.845 152.015 C
201.653 151.816 201.336 151.811 201.138 152.003 C
200.939 152.195 200.934 152.511 201.126 152.71 C
203.426 155.087 205.589 157.619 207.6 160.3 C
207.765 160.521 208.079 160.566 208.3 160.4 C
208.521 160.235 208.566 159.921 208.4 159.7 C
P
G
WC
WF
R N
N
64.0 160.5 M
224.0 160.5 L
224.5 160.5 L
224.5 159.5 L
224.0 159.5 L
64.0 159.5 L
63.5 159.5 L
63.5 160.5 L
64.0 160.5 L
P
G
WC
WF
R N
N
82.828 160.0 M
82.828 161.562 81.562 162.828 80.0 162.828 C
78.438 162.828 77.172 161.562 77.172 160.0 C
77.172 158.438 78.438 157.172 80.0 157.172 C
81.562 157.172 82.828 158.438 82.828 160.0 C
P
G
WC
WF
R N
N
82.328 160.0 M
82.328 161.286 81.286 162.328 80.0 162.328 C
78.714 162.328 77.672 161.286 77.672 160.0 C
77.672 158.714 78.714 157.672 80.0 157.672 C
81.286 157.672 82.328 158.714 82.328 160.0 C
P
83.328 160.0 M
83.328 158.162 81.838 156.672 80.0 156.672 C
78.162 156.672 76.672 158.162 76.672 160.0 C
76.672 161.838 78.162 163.328 80.0 163.328 C
81.838 163.328 83.328 161.838 83.328 160.0 C
P
G
WC
WF
R N
N
210.828 160.0 M
210.828 161.562 209.562 162.828 208.0 162.828 C
206.438 162.828 205.172 161.562 205.172 160.0 C
205.172 158.438 206.438 157.172 208.0 157.172 C
209.562 157.172 210.828 158.438 210.828 160.0 C
P
G
WC
WF
R N
N
210.328 160.0 M
210.328 161.286 209.286 162.328 208.0 162.328 C
206.714 162.328 205.672 161.286 205.672 160.0 C
205.672 158.714 206.714 157.672 208.0 157.672 C
209.286 157.672 210.328 158.714 210.328 160.0 C
P
211.328 160.0 M
211.328 158.162 209.838 156.672 208.0 156.672 C
206.162 156.672 204.672 158.162 204.672 160.0 C
204.672 161.838 206.162 163.328 208.0 163.328 C
209.838 163.328 211.328 161.838 211.328 160.0 C
P
G
WC
WF
R N
pgSave restore
showpage
%%EOF
